{
    "forge_marker":1,
    "defaults":{
        "textures":{
            "all":"nnparadisemod:blocks/crystals/quartz_crystal"
        },
        "model":"nnparadisemod:crystal_0"
    },
    "variants": {
        "inventory":{"model":"nnparadisemod:crystal_0"},
        
        "facing=up,type=0": {
            "model":"nnparadisemod:crystal_0"
        },
        "facing=down,type=0": {
            "model":"nnparadisemod:crystal_0",
            "x": 180
        },
        "facing=north,type=0": {
            "model":"nnparadisemod:crystal_0",
            "y": 0,
            "x": 90
        },
        "facing=south,type=0": {
            "model":"nnparadisemod:crystal_0",
            "y": 180,
            "x": 90
        },
        "facing=west,type=0": {
            "model":"nnparadisemod:crystal_0",
            "y": 270,
            "x": 90
        },
        "facing=east,type=0": {
            "model":"nnparadisemod:crystal_0",
            "y": 90,
            "x": 90
        },

        "facing=up,type=1": {
            "model":"nnparadisemod:crystal_1"
        },
        "facing=down,type=1": {
            "model":"nnparadisemod:crystal_1",
            "x": 180
        },
        "facing=north,type=1": {
            "model":"nnparadisemod:crystal_1",
            "y": 0,
            "x": 90
        },
        "facing=south,type=1": {
            "model":"nnparadisemod:crystal_1",
            "y": 180,
            "x": 90
        },
        "facing=west,type=1": {
            "model":"nnparadisemod:crystal_1",
            "y": 270,
            "x": 90
        },
        "facing=east,type=1": {
            "model":"nnparadisemod:crystal_1",
            "y": 90,
            "x": 90
        },
        
        "facing=up,type=2": {
            "model":"nnparadisemod:crystal_2"
        },
        "facing=down,type=2": {
            "model":"nnparadisemod:crystal_2",
            "x": 180
        },
        "facing=north,type=2": {
            "model":"nnparadisemod:crystal_2",
            "y": 0,
            "x": 90
        },
        "facing=south,type=2": {
            "model":"nnparadisemod:crystal_2",
            "y": 180,
            "x": 90
        },
        "facing=west,type=2": {
            "model":"nnparadisemod:crystal_2",
            "y": 270,
            "x": 90
        },
        "facing=east,type=2": {
            "model":"nnparadisemod:crystal_2",
            "y": 90,
            "x": 90
        },        
        
        "facing=up,type=3": {
            "model":"nnparadisemod:crystal_3"
        },
        "facing=down,type=3": {
            "model":"nnparadisemod:crystal_3",
            "x": 180
        },
        "facing=north,type=3": {
            "model":"nnparadisemod:crystal_3",
            "y": 0,
            "x": 90
        },
        "facing=south,type=3": {
            "model":"nnparadisemod:crystal_3",
            "y": 180,
            "x": 90
        },
        "facing=west,type=3": {
            "model":"nnparadisemod:crystal_3",
            "y": 270,
            "x": 90
        },
        "facing=east,type=3": {
            "model":"nnparadisemod:crystal_3",
            "y": 90,
            "x": 90
        }
    }
}
