{
	"credit": "Made with Blockbench",
	"textures": {
		"0": "#all",
		"particle": "#all"
	},
	"elements": [
		{
			"from": [9, 0, 10],
			"to": [13, 9, 14],
			"faces": {
				"north": {"uv": [6, 3, 10, 12], "texture": "#0"},
				"east": {"uv": [6, 3, 10, 12], "texture": "#0"},
				"south": {"uv": [6, 3, 10, 12], "texture": "#0"},
				"west": {"uv": [6, 3, 10, 12], "texture": "#0"},
				"up": {"uv": [6, 6, 10, 10], "texture": "#0"}
			}
		},
		{
			"from": [9.5, 9.5, 10.5],
			"to": [12.5, 10, 13.5],
			"faces": {
				"north": {"uv": [5, 8, 8, 8.5], "texture": "#0"},
				"east": {"uv": [5, 8, 8, 8.5], "texture": "#0"},
				"south": {"uv": [5, 8, 8, 8.5], "texture": "#0"},
				"west": {"uv": [5, 8, 8, 8.5], "texture": "#0"},
				"up": {"uv": [6, 6, 9, 9], "texture": "#0"}
			}
		},
		{
			"from": [9.75, 10, 10.75],
			"to": [12.25, 10.5, 13.25],
			"faces": {
				"north": {"uv": [5, 8, 7.5, 8.5], "texture": "#0"},
				"east": {"uv": [5, 8, 7.5, 8.5], "texture": "#0"},
				"south": {"uv": [5, 8, 7.5, 8.5], "texture": "#0"},
				"west": {"uv": [5, 8, 7.5, 8.5], "texture": "#0"},
				"up": {"uv": [6, 6, 8.5, 8.5], "texture": "#0"}
			}
		},
		{
			"from": [10, 10.5, 11],
			"to": [12, 11, 13],
			"faces": {
				"north": {"uv": [6, 7, 8, 7.5], "texture": "#0"},
				"east": {"uv": [6, 7, 8, 7.5], "texture": "#0"},
				"south": {"uv": [6, 7, 8, 7.5], "texture": "#0"},
				"west": {"uv": [6, 7, 8, 7.5], "texture": "#0"},
				"up": {"uv": [7, 7, 9, 9], "texture": "#0"}
			}
		},
		{
			"from": [10.25, 11, 11.25],
			"to": [11.75, 11.5, 12.75],
			"faces": {
				"north": {"uv": [6, 7, 7.5, 7.5], "texture": "#0"},
				"east": {"uv": [6, 7, 7.5, 7.5], "texture": "#0"},
				"south": {"uv": [6, 7, 7.5, 7.5], "texture": "#0"},
				"west": {"uv": [6, 7, 7.5, 7.5], "texture": "#0"},
				"up": {"uv": [6, 7, 7.5, 8.5], "texture": "#0"}
			}
		},
		{
			"from": [10.5, 11.5, 11.5],
			"to": [11.5, 12, 12.5],
			"faces": {
				"north": {"uv": [5, 7, 6, 7.5], "texture": "#0"},
				"east": {"uv": [5, 7, 6, 7.5], "texture": "#0"},
				"south": {"uv": [5, 7, 6, 7.5], "texture": "#0"},
				"west": {"uv": [5, 7, 6, 7.5], "texture": "#0"},
				"up": {"uv": [5, 7, 6, 8], "texture": "#0"}
			}
		},
		{
			"from": [10.75, 12, 11.75],
			"to": [11.25, 12.5, 12.25],
			"faces": {
				"north": {"uv": [5, 7, 5.5, 7.5], "texture": "#0"},
				"east": {"uv": [5, 7, 5.5, 7.5], "texture": "#0"},
				"south": {"uv": [5, 7, 5.5, 7.5], "texture": "#0"},
				"west": {"uv": [5, 7, 5.5, 7.5], "texture": "#0"},
				"up": {"uv": [5, 7, 5.5, 7.5], "texture": "#0"},
				"down": {"uv": [5, 7, 5.5, 7.5], "texture": "#0"}
			}
		},
		{
			"from": [9.25, 9, 10.25],
			"to": [12.75, 9.5, 13.75],
			"faces": {
				"north": {"uv": [5, 8, 8.5, 8.5], "texture": "#0"},
				"east": {"uv": [5, 8, 8.5, 8.5], "texture": "#0"},
				"south": {"uv": [5, 8, 8.5, 8.5], "texture": "#0"},
				"west": {"uv": [5, 8, 8.5, 8.5], "texture": "#0"},
				"up": {"uv": [6, 5, 9.5, 8.5], "texture": "#0"}
			}
		},
		{
			"from": [3.75, 16, 7.75],
			"to": [4.25, 16.5, 8.25],
			"faces": {
				"north": {"uv": [5, 7, 5.5, 7.5], "texture": "#0"},
				"east": {"uv": [5, 7, 5.5, 7.5], "texture": "#0"},
				"south": {"uv": [5, 7, 5.5, 7.5], "texture": "#0"},
				"west": {"uv": [5, 7, 5.5, 7.5], "texture": "#0"},
				"up": {"uv": [5, 7, 5.5, 7.5], "texture": "#0"},
				"down": {"uv": [5, 7, 5.5, 7.5], "texture": "#0"}
			}
		},
		{
			"from": [3.5, 15.5, 7.5],
			"to": [4.5, 16, 8.5],
			"faces": {
				"north": {"uv": [5, 7, 6, 7.5], "texture": "#0"},
				"east": {"uv": [5, 7, 6, 7.5], "texture": "#0"},
				"south": {"uv": [5, 7, 6, 7.5], "texture": "#0"},
				"west": {"uv": [5, 7, 6, 7.5], "texture": "#0"},
				"up": {"uv": [5, 7, 6, 8], "texture": "#0"}
			}
		},
		{
			"from": [3.25, 15, 7.25],
			"to": [4.75, 15.5, 8.75],
			"faces": {
				"north": {"uv": [6, 7, 7.5, 7.5], "texture": "#0"},
				"east": {"uv": [6, 7, 7.5, 7.5], "texture": "#0"},
				"south": {"uv": [6, 7, 7.5, 7.5], "texture": "#0"},
				"west": {"uv": [6, 7, 7.5, 7.5], "texture": "#0"},
				"up": {"uv": [6, 7, 7.5, 8.5], "texture": "#0"}
			}
		},
		{
			"from": [3, 14.5, 7],
			"to": [5, 15, 9],
			"faces": {
				"north": {"uv": [6, 7, 8, 7.5], "texture": "#0"},
				"east": {"uv": [6, 7, 8, 7.5], "texture": "#0"},
				"south": {"uv": [6, 7, 8, 7.5], "texture": "#0"},
				"west": {"uv": [6, 7, 8, 7.5], "texture": "#0"},
				"up": {"uv": [7, 7, 9, 9], "texture": "#0"}
			}
		},
		{
			"from": [2.75, 14, 6.75],
			"to": [5.25, 14.5, 9.25],
			"faces": {
				"north": {"uv": [5, 8, 7.5, 8.5], "texture": "#0"},
				"east": {"uv": [5, 8, 7.5, 8.5], "texture": "#0"},
				"south": {"uv": [5, 8, 7.5, 8.5], "texture": "#0"},
				"west": {"uv": [5, 8, 7.5, 8.5], "texture": "#0"},
				"up": {"uv": [6, 6, 8.5, 8.5], "texture": "#0"}
			}
		},
		{
			"from": [2.5, 13.5, 6.5],
			"to": [5.5, 14, 9.5],
			"faces": {
				"north": {"uv": [5, 8, 8, 8.5], "texture": "#0"},
				"east": {"uv": [5, 8, 8, 8.5], "texture": "#0"},
				"south": {"uv": [5, 8, 8, 8.5], "texture": "#0"},
				"west": {"uv": [5, 8, 8, 8.5], "texture": "#0"},
				"up": {"uv": [6, 6, 9, 9], "texture": "#0"}
			}
		},
		{
			"from": [2.25, 13, 6.25],
			"to": [5.75, 13.5, 9.75],
			"faces": {
				"north": {"uv": [5, 8, 8.5, 8.5], "texture": "#0"},
				"east": {"uv": [5, 8, 8.5, 8.5], "texture": "#0"},
				"south": {"uv": [5, 8, 8.5, 8.5], "texture": "#0"},
				"west": {"uv": [5, 8, 8.5, 8.5], "texture": "#0"},
				"up": {"uv": [6, 5, 9.5, 8.5], "texture": "#0"}
			}
		},
		{
			"from": [2, 0, 6],
			"to": [6, 13, 10],
			"faces": {
				"north": {"uv": [6, 1, 10, 14], "texture": "#0"},
				"east": {"uv": [6, 1, 10, 14], "texture": "#0"},
				"south": {"uv": [6, 1, 10, 14], "texture": "#0"},
				"west": {"uv": [6, 1, 10, 14], "texture": "#0"},
				"up": {"uv": [6, 6, 10, 10], "texture": "#0"}
			}
		},
		{
			"from": [10.25, 15, 2.25],
			"to": [13.75, 15.5, 5.75],
			"faces": {
				"north": {"uv": [5, 8, 8.5, 8.5], "texture": "#0"},
				"east": {"uv": [5, 8, 8.5, 8.5], "texture": "#0"},
				"south": {"uv": [5, 8, 8.5, 8.5], "texture": "#0"},
				"west": {"uv": [5, 8, 8.5, 8.5], "texture": "#0"},
				"up": {"uv": [6, 5, 9.5, 8.5], "texture": "#0"}
			}
		},
		{
			"from": [11.75, 18, 3.75],
			"to": [12.25, 18.5, 4.25],
			"faces": {
				"north": {"uv": [5, 7, 5.5, 7.5], "texture": "#0"},
				"east": {"uv": [5, 7, 5.5, 7.5], "texture": "#0"},
				"south": {"uv": [5, 7, 5.5, 7.5], "texture": "#0"},
				"west": {"uv": [5, 7, 5.5, 7.5], "texture": "#0"},
				"up": {"uv": [5, 7, 5.5, 7.5], "texture": "#0"},
				"down": {"uv": [5, 7, 5.5, 7.5], "texture": "#0"}
			}
		},
		{
			"from": [11.5, 17.5, 3.5],
			"to": [12.5, 18, 4.5],
			"faces": {
				"north": {"uv": [5, 7, 6, 7.5], "texture": "#0"},
				"east": {"uv": [5, 7, 6, 7.5], "texture": "#0"},
				"south": {"uv": [5, 7, 6, 7.5], "texture": "#0"},
				"west": {"uv": [5, 7, 6, 7.5], "texture": "#0"},
				"up": {"uv": [5, 7, 6, 8], "texture": "#0"}
			}
		},
		{
			"from": [11.25, 17, 3.25],
			"to": [12.75, 17.5, 4.75],
			"faces": {
				"north": {"uv": [6, 7, 7.5, 7.5], "texture": "#0"},
				"east": {"uv": [6, 7, 7.5, 7.5], "texture": "#0"},
				"south": {"uv": [6, 7, 7.5, 7.5], "texture": "#0"},
				"west": {"uv": [6, 7, 7.5, 7.5], "texture": "#0"},
				"up": {"uv": [6, 7, 7.5, 8.5], "texture": "#0"}
			}
		},
		{
			"from": [11, 16.5, 3],
			"to": [13, 17, 5],
			"faces": {
				"north": {"uv": [6, 7, 8, 7.5], "texture": "#0"},
				"east": {"uv": [6, 7, 8, 7.5], "texture": "#0"},
				"south": {"uv": [6, 7, 8, 7.5], "texture": "#0"},
				"west": {"uv": [6, 7, 8, 7.5], "texture": "#0"},
				"up": {"uv": [7, 7, 9, 9], "texture": "#0"}
			}
		},
		{
			"from": [10.75, 16, 2.75],
			"to": [13.25, 16.5, 5.25],
			"faces": {
				"north": {"uv": [5, 8, 7.5, 8.5], "texture": "#0"},
				"east": {"uv": [5, 8, 7.5, 8.5], "texture": "#0"},
				"south": {"uv": [5, 8, 7.5, 8.5], "texture": "#0"},
				"west": {"uv": [5, 8, 7.5, 8.5], "texture": "#0"},
				"up": {"uv": [6, 6, 8.5, 8.5], "texture": "#0"}
			}
		},
		{
			"from": [10.5, 15.5, 2.5],
			"to": [13.5, 16, 5.5],
			"faces": {
				"north": {"uv": [5, 8, 8, 8.5], "texture": "#0"},
				"east": {"uv": [5, 8, 8, 8.5], "texture": "#0"},
				"south": {"uv": [5, 8, 8, 8.5], "texture": "#0"},
				"west": {"uv": [5, 8, 8, 8.5], "texture": "#0"},
				"up": {"uv": [6, 6, 9, 9], "texture": "#0"}
			}
		},
		{
			"from": [10, 0, 2],
			"to": [14, 15, 6],
			"faces": {
				"north": {"uv": [6, 1, 10, 16], "texture": "#0"},
				"east": {"uv": [6, 1, 10, 16], "texture": "#0"},
				"south": {"uv": [6, 1, 10, 16], "texture": "#0"},
				"west": {"uv": [6, 1, 10, 16], "texture": "#0"},
				"up": {"uv": [6, 6, 10, 10], "texture": "#0"}
			}
		}
	],
	"groups": [
		{
			"name": "1",
			"origin": [0, 0, 0],
			"children": [0, 1, 2, 3, 4, 5, 6, 7]
		},
		{
			"name": "2",
			"origin": [0, 0, 0],
			"children": [8, 9, 10, 11, 12, 13, 14, 15]
		},
		{
			"name": "3",
			"origin": [0, 0, 0],
			"children": [16, 17, 18, 19, 20, 21, 22, 23]
		}
	]
}
